{
  "project_info": {
    "project_number": "601708490866",
    "firebase_url": "https://storm-project-219004.firebaseio.com",
    "project_id": "storm-project-219004",
    "storage_bucket": "storm-project-219004.appspot.com"
  },
  "client": [
    {
      "client_info": {
        "mobilesdk_app_id": "1:601708490866:android:de71d004dc892435b912eb",
        "android_client_info": {
          "package_name": "dev.bezerra.cadastro_localizacao"
        }
      },
      "oauth_client": [
        {
          "client_id": "601708490866-1ps41qjeo4lafghimha07s3d5k8stren.apps.googleusercontent.com",
          "client_type": 1,
          "android_info": {
            "package_name": "dev.bezerra.cadastro_localizacao",
            "certificate_hash": "ecb638068fe7c8a9b521d85532e80d097eaf27f1"
          }
        },
        {
          "client_id": "601708490866-s4utfmkkokh5vre36h4o57kfpgdcjc33.apps.googleusercontent.com",
          "client_type": 3
        }
      ],
      "api_key": [
        {
          "current_key": "AIzaSyBYLgAFyhvnTvvcGrAGw8u9TQ0vThrUR14"
        }
      ],
      "services": {
        "appinvite_service": {
          "other_platform_oauth_client": [
            {
              "client_id": "601708490866-s4utfmkkokh5vre36h4o57kfpgdcjc33.apps.googleusercontent.com",
              "client_type": 3
            }
          ]
        }
      }
    }
  ],
  "configuration_version": "1"
}